<svg width="30" height="30" viewBox="0 0 30 30" fill="none" xmlns="http://www.w3.org/2000/svg">
<path d="M29.6252 14.8376C25.8142 11.2251 20.6664 9.00009 14.9938 9.00009C9.32112 9.00009 4.17326 11.2251 0.362349 14.8376C0.137443 15.0626 0 15.3751 0 15.7251C0 16.0751 0.137443 16.3876 0.362349 16.6126L3.46106 19.7126C3.68596 19.9376 3.99833 20.0751 4.34819 20.0751C4.68555 20.0751 4.99792 19.9376 5.22282 19.7251C6.20991 18.8001 7.33444 18.0251 8.54644 17.4126C8.95877 17.2126 9.24615 16.7876 9.24615 16.2876V12.4126C11.0579 11.8126 12.9946 11.5001 14.9938 11.5001C16.9929 11.5001 18.9296 11.8126 20.7414 12.4001V16.2751C20.7414 16.7626 21.0287 17.2001 21.4411 17.4001C22.6656 18.0126 23.7776 18.8001 24.7772 19.7126C25.0021 19.9376 25.3145 20.0626 25.6518 20.0626C26.0017 20.0626 26.314 19.9251 26.5389 19.7001L29.6377 16.6001C29.8626 16.3751 30 16.0626 30 15.7126C30 15.3626 29.8501 15.0626 29.6252 14.8376Z" fill="white"/>
</svg>
