<svg width="30" height="30" viewBox="0 0 30 30" fill="none" xmlns="http://www.w3.org/2000/svg">
<path fill-rule="evenodd" clip-rule="evenodd" d="M22 13.75H9.98749V10L4.99999 15L9.98749 20V16.25H22V13.75ZM23.25 10.5H25.5V19.5H23.25V10.5Z" fill="white"/>
</svg>
