<svg width="115" height="34" viewBox="0 0 115 34" fill="none" xmlns="http://www.w3.org/2000/svg">
<path d="M57.8283 21.6112C55.5263 21.6112 53.6543 23.3592 53.6543 25.7732C53.6543 28.1732 55.5263 29.9352 57.8283 29.9352C60.1303 29.9352 62.0023 28.1752 62.0023 25.7732C62.0023 23.3712 60.1323 21.6112 57.8283 21.6112ZM57.8283 28.2972C56.5723 28.2972 55.4763 27.2502 55.4763 25.7732C55.4763 24.2712 56.5593 23.2492 57.8283 23.2492C59.0973 23.2492 60.1803 24.2712 60.1803 25.7732C60.1683 27.2502 59.0843 28.2972 57.8283 28.2972ZM69.0083 22.5472H68.9483C68.5423 22.0552 67.7543 21.6112 66.7563 21.6112C64.6763 21.6112 62.7563 23.4462 62.7563 25.7852C62.7563 28.1122 64.6643 29.9352 66.7563 29.9352C67.7533 29.9352 68.5413 29.4922 68.9483 28.9872H69.0083V29.5902C69.0083 31.1782 68.1583 32.0282 66.7923 32.0282C65.6723 32.0282 64.9923 31.2282 64.6993 30.5512L63.1113 31.2162C63.5673 32.3242 64.7853 33.6783 66.8053 33.6783C68.9473 33.6783 70.7573 32.4222 70.7573 29.3442V21.8702H69.0213L69.0083 22.5472ZM66.9153 28.2972C65.6593 28.2972 64.6003 27.2372 64.6003 25.7852C64.6003 24.3202 65.6603 23.2492 66.9153 23.2492C68.1593 23.2492 69.1313 24.3192 69.1313 25.7852C69.1313 27.2512 68.1583 28.2972 66.9153 28.2972ZM48.7173 21.6112C46.4153 21.6112 44.5433 23.3592 44.5433 25.7732C44.5433 28.1732 46.4133 29.9352 48.7173 29.9352C51.0213 29.9352 52.8913 28.1752 52.8913 25.7732C52.8913 23.3712 51.0213 21.6112 48.7173 21.6112ZM48.7173 28.2972C47.4613 28.2972 46.3653 27.2502 46.3653 25.7732C46.3653 24.2712 47.4483 23.2492 48.7173 23.2492C49.9733 23.2492 51.0693 24.2712 51.0693 25.7732C51.0573 27.2502 49.9733 28.2972 48.7173 28.2972ZM37.8703 22.8802V24.6402H42.0933C41.9703 25.6372 41.6373 26.3642 41.1333 26.8702C40.5173 27.4862 39.5573 28.1632 37.8703 28.1632C35.2723 28.1632 33.2403 26.0702 33.2403 23.4632C33.2403 20.8562 35.2723 18.7632 37.8703 18.7632C39.2743 18.7632 40.2963 19.3172 41.0703 20.0192L42.3143 18.7752C41.2543 17.7752 39.8523 16.9902 37.8823 16.9902C34.3243 16.9902 31.3193 19.8962 31.3193 23.4542C31.3193 27.0122 34.3113 29.9182 37.8823 29.9182C39.8023 29.9182 41.2563 29.2902 42.3883 28.1182C43.5583 26.9482 43.9153 25.3112 43.9153 23.9932C43.9173 23.6216 43.8838 23.2506 43.8153 22.8853L37.8703 22.8802ZM82.1953 24.2802C81.8503 23.3442 80.7913 21.6332 78.6373 21.6332C76.4953 21.6332 74.7093 23.3202 74.7093 25.7952C74.7093 28.1222 76.4693 29.9572 78.8343 29.9572C80.7423 29.9572 81.8513 28.7872 82.3063 28.1102L80.8903 27.1622C80.4223 27.8622 79.7703 28.3073 78.8463 28.3073C77.9223 28.3073 77.2583 27.8772 76.8263 27.0512L82.3913 24.7492L82.1953 24.2802ZM76.5313 25.6602C76.4813 24.0472 77.7753 23.2343 78.7113 23.2343C79.4373 23.2343 80.0533 23.5912 80.2513 24.1202L76.5313 25.6602ZM72.0013 29.6982H73.8233V17.4722H72.0013V29.6982ZM90.7653 17.4722H86.3953V29.6982H88.2173V25.0682H90.7673C92.7873 25.0682 94.7813 23.6032 94.7813 21.2632C94.7813 18.9362 92.7863 17.4713 90.7673 17.4713L90.7653 17.4722ZM90.8153 23.3452H88.2173V19.1592H90.8153C92.1823 19.1592 92.9573 20.2922 92.9573 21.2522C92.9573 22.2122 92.1813 23.3452 90.8153 23.3452ZM95.7893 29.6982H97.6113V17.4722H95.7893V29.6982ZM102.093 21.5963C100.776 21.5963 99.3973 22.1762 98.8303 23.4662L100.455 24.1432C100.8 23.4662 101.44 23.2432 102.117 23.2432C103.065 23.2432 104.025 23.8092 104.037 24.8192V24.9422C103.705 24.7572 103.003 24.4742 102.129 24.4742C100.381 24.4742 98.6093 25.4342 98.6093 27.2322C98.6093 28.8702 100.037 29.9162 101.649 29.9162C102.879 29.9162 103.557 29.3622 103.976 28.7222H104.036V29.6702H105.796V24.9702C105.808 22.8032 104.183 21.5842 102.09 21.5842L102.093 21.5963ZM101.871 28.2962C101.268 28.2962 100.443 28.0012 100.443 27.2622C100.443 26.3142 101.477 25.9572 102.376 25.9572C103.176 25.9572 103.558 26.1293 104.038 26.3633C103.974 26.8937 103.718 27.3823 103.319 27.738C102.92 28.0937 102.406 28.2922 101.871 28.2962ZM112.226 21.8562L110.133 27.1632H110.073L107.906 21.8562H105.936L109.186 29.2682L107.326 33.4052H109.234L114.257 21.8682H112.225L112.226 21.8562Z" fill="#7F8AB5"/>
<path d="M-0.563885 5.37962C-0.836457 5.66582 -1 6.11557 -1 6.68797V27.308C-1 27.8804 -0.836457 28.3302 -0.563885 28.6164L-0.495742 28.6845L11.0613 17.1275V16.8549L-0.495742 5.29785L-0.563885 5.37962Z" fill="#7F8AB5"/>
<path d="M14.9048 20.9844L11.0615 17.1275V16.8549L14.9184 12.998L15.0002 13.0526L19.5658 15.642C20.8741 16.3779 20.8741 17.5909 19.5658 18.3405L15.0002 20.9299L14.9048 20.9844Z" fill="#7F8AB5"/>
<path d="M15.0004 20.9299L11.0617 16.9912L-0.563477 28.6164C-0.14099 29.0661 0.581325 29.1343 1.37178 28.6709L15.0004 20.9299Z" fill="#7F8AB5"/>
<path d="M15.0004 13.066L1.37178 5.32496C0.567697 4.87522 -0.14099 4.92973 -0.563477 5.37947L11.0617 17.0047L15.0004 13.066Z" fill="#7F8AB5"/>
<path opacity="0.2" d="M14.905 20.8481L1.37178 28.5347C0.608583 28.9708 -0.0592183 28.9435 -0.495334 28.5483L-0.563477 28.6164L-0.495334 28.6846C-0.0592183 29.0798 0.622211 29.1071 1.37178 28.671L15.0004 20.9299L14.905 20.8481Z" fill="black"/>
<path opacity="0.12" d="M-0.563885 28.4801C-0.836457 28.1939 -1 27.7442 -1 27.1718V27.3081C-1 27.8805 -0.836457 28.3302 -0.563885 28.6164L-0.495742 28.5483L-0.563885 28.4801ZM19.5519 18.2042L14.9046 20.8481L14.9863 20.9299L19.5519 18.3404C20.2061 17.9725 20.5332 17.4818 20.5332 16.9912C20.4787 17.441 20.1516 17.8634 19.5519 18.2042Z" fill="black"/>
<path opacity="0.25" d="M1.37138 5.44781L19.5519 15.7783C20.138 16.119 20.4787 16.5415 20.5332 16.9912C20.5332 16.5006 20.2061 16.01 19.5519 15.642L1.37138 5.31152C0.06303 4.57558 -1 5.18886 -1 6.67438V6.81067C-1 5.32515 0.06303 4.71186 1.37138 5.44781Z" fill="white"/>
<path d="M36.3672 4.75977C36.3672 4.30664 36.2012 3.94727 35.8691 3.68164C35.541 3.41211 35.0781 3.27734 34.4805 3.27734C33.9805 3.27734 33.5605 3.41602 33.2207 3.69336C32.8848 3.9668 32.7168 4.30664 32.7168 4.71289H31.5918C31.5918 4.25977 31.7148 3.85352 31.9609 3.49414C32.2109 3.13477 32.5586 2.85547 33.0039 2.65625C33.4492 2.45312 33.9414 2.35156 34.4805 2.35156C35.4336 2.35156 36.1738 2.56641 36.7012 2.99609C37.2285 3.42188 37.4922 4.01562 37.4922 4.77734C37.4922 5.17188 37.3711 5.53125 37.1289 5.85547C36.8867 6.17969 36.5488 6.43555 36.1152 6.62305C37.1191 6.95898 37.6211 7.625 37.6211 8.62109C37.6211 9.38672 37.3359 9.99414 36.7656 10.4434C36.1953 10.8926 35.4336 11.1172 34.4805 11.1172C33.9141 11.1172 33.3984 11.0176 32.9336 10.8184C32.4727 10.6152 32.1133 10.3281 31.8555 9.95703C31.5977 9.58594 31.4688 9.14453 31.4688 8.63281H32.5938C32.5938 9.08203 32.7715 9.45703 33.127 9.75781C33.4824 10.0547 33.9336 10.2031 34.4805 10.2031C35.0938 10.2031 35.582 10.0605 35.9453 9.77539C36.3125 9.49023 36.4961 9.11328 36.4961 8.64453C36.4961 7.64453 35.877 7.13477 34.6387 7.11523H33.584V6.18945H34.6328C35.2031 6.17773 35.6348 6.04883 35.9277 5.80273C36.2207 5.55664 36.3672 5.20898 36.3672 4.75977ZM42.8594 11C42.7969 10.875 42.7461 10.6523 42.707 10.332C42.2031 10.8555 41.6016 11.1172 40.9023 11.1172C40.2773 11.1172 39.7637 10.9414 39.3613 10.5898C38.9629 10.2344 38.7637 9.78516 38.7637 9.24219C38.7637 8.58203 39.0137 8.07031 39.5137 7.70703C40.0176 7.33984 40.7246 7.15625 41.6348 7.15625H42.6895V6.6582C42.6895 6.2793 42.5762 5.97852 42.3496 5.75586C42.123 5.5293 41.7891 5.41602 41.3477 5.41602C40.9609 5.41602 40.6367 5.51367 40.375 5.70898C40.1133 5.9043 39.9824 6.14062 39.9824 6.41797H38.8926C38.8926 6.10156 39.0039 5.79688 39.2266 5.50391C39.4531 5.20703 39.7578 4.97266 40.1406 4.80078C40.5273 4.62891 40.9512 4.54297 41.4121 4.54297C42.1426 4.54297 42.7148 4.72656 43.1289 5.09375C43.543 5.45703 43.7578 5.95898 43.7734 6.59961V9.51758C43.7734 10.0996 43.8477 10.5625 43.9961 10.9062V11H42.8594ZM41.0605 10.1738C41.4004 10.1738 41.7227 10.0859 42.0273 9.91016C42.332 9.73438 42.5527 9.50586 42.6895 9.22461V7.92383H41.8398C40.5117 7.92383 39.8477 8.3125 39.8477 9.08984C39.8477 9.42969 39.9609 9.69531 40.1875 9.88672C40.4141 10.0781 40.7051 10.1738 41.0605 10.1738ZM49.5684 5.55664H46.6445V11H45.5547V4.66016H49.5684V5.55664ZM55.8672 7.90039C55.8672 8.86523 55.6465 9.64258 55.2051 10.2324C54.7637 10.8223 54.166 11.1172 53.4121 11.1172C52.6426 11.1172 52.0371 10.873 51.5957 10.3848V13.4375H50.5117V4.66016H51.502L51.5547 5.36328C51.9961 4.81641 52.6094 4.54297 53.3945 4.54297C54.1562 4.54297 54.7578 4.83008 55.1992 5.4043C55.6445 5.97852 55.8672 6.77734 55.8672 7.80078V7.90039ZM54.7832 7.77734C54.7832 7.0625 54.6309 6.49805 54.3262 6.08398C54.0215 5.66992 53.6035 5.46289 53.0723 5.46289C52.416 5.46289 51.9238 5.75391 51.5957 6.33594V9.36523C51.9199 9.94336 52.416 10.2324 53.084 10.2324C53.6035 10.2324 54.0156 10.0273 54.3203 9.61719C54.6289 9.20312 54.7832 8.58984 54.7832 7.77734ZM59.2539 9.41211L60.7305 4.66016H61.8906L59.3418 11.9785C58.9473 13.0332 58.3203 13.5605 57.4609 13.5605L57.2559 13.543L56.8516 13.4668V12.5879L57.1445 12.6113C57.5117 12.6113 57.7969 12.5371 58 12.3887C58.207 12.2402 58.377 11.9688 58.5098 11.5742L58.75 10.9297L56.4883 4.66016H57.6719L59.2539 9.41211ZM66.3496 6.39453C66.3496 6.09766 66.2363 5.86328 66.0098 5.69141C65.7832 5.51562 65.4727 5.42773 65.0781 5.42773C64.6953 5.42773 64.375 5.52734 64.1172 5.72656C63.8633 5.92578 63.7363 6.16016 63.7363 6.42969H62.6582C62.6582 5.87891 62.8887 5.42773 63.3496 5.07617C63.8105 4.72461 64.3867 4.54883 65.0781 4.54883C65.8203 4.54883 66.3984 4.70898 66.8125 5.0293C67.2266 5.3457 67.4336 5.79883 67.4336 6.38867C67.4336 6.67383 67.3477 6.93555 67.1758 7.17383C67.0039 7.41211 66.7598 7.60156 66.4434 7.74219C67.1816 7.99219 67.5508 8.48438 67.5508 9.21875C67.5508 9.80078 67.3262 10.2617 66.877 10.6016C66.4277 10.9414 65.8281 11.1113 65.0781 11.1113C64.3477 11.1113 63.7441 10.9336 63.2676 10.5781C62.7949 10.2188 62.5586 9.73438 62.5586 9.125H63.6367C63.6367 9.43359 63.7734 9.69922 64.0469 9.92188C64.3242 10.1406 64.668 10.25 65.0781 10.25C65.4922 10.25 65.8262 10.1543 66.0801 9.96289C66.334 9.77148 66.4609 9.52344 66.4609 9.21875C66.4609 8.86328 66.3535 8.60938 66.1387 8.45703C65.9277 8.30078 65.5977 8.22266 65.1484 8.22266H64.0645V7.30859H65.2422C65.9805 7.28906 66.3496 6.98438 66.3496 6.39453ZM73.0586 4.66016H74.1426V11H73.0586V6.37695L70.1348 11H69.0508V4.66016H70.1348V9.28906L73.0586 4.66016ZM80.5938 5.53906H78.4668V11H77.3828V5.53906H75.2969V4.66016H80.5938V5.53906ZM82.832 6.8457H84.4785C85.1973 6.85352 85.7656 7.04102 86.1836 7.4082C86.6016 7.77539 86.8105 8.27344 86.8105 8.90234C86.8105 9.53516 86.5957 10.043 86.166 10.4258C85.7363 10.8086 85.1582 11 84.4316 11H81.748V4.66016H82.832V6.8457ZM82.832 7.73047V10.1152H84.4434C84.8496 10.1152 85.1641 10.0117 85.3867 9.80469C85.6094 9.59375 85.7207 9.30664 85.7207 8.94336C85.7207 8.5918 85.6113 8.30469 85.3926 8.08203C85.1777 7.85547 84.875 7.73828 84.4844 7.73047H82.832ZM96.3203 11H95.2363V8.29297H92.3242V11H91.2344V4.66016H92.3242V7.4082H95.2363V4.66016H96.3203V11ZM101.98 11C101.918 10.875 101.867 10.6523 101.828 10.332C101.324 10.8555 100.723 11.1172 100.023 11.1172C99.3984 11.1172 98.8848 10.9414 98.4824 10.5898C98.084 10.2344 97.8848 9.78516 97.8848 9.24219C97.8848 8.58203 98.1348 8.07031 98.6348 7.70703C99.1387 7.33984 99.8457 7.15625 100.756 7.15625H101.811V6.6582C101.811 6.2793 101.697 5.97852 101.471 5.75586C101.244 5.5293 100.91 5.41602 100.469 5.41602C100.082 5.41602 99.7578 5.51367 99.4961 5.70898C99.2344 5.9043 99.1035 6.14062 99.1035 6.41797H98.0137C98.0137 6.10156 98.125 5.79688 98.3477 5.50391C98.5742 5.20703 98.8789 4.97266 99.2617 4.80078C99.6484 4.62891 100.072 4.54297 100.533 4.54297C101.264 4.54297 101.836 4.72656 102.25 5.09375C102.664 5.45703 102.879 5.95898 102.895 6.59961V9.51758C102.895 10.0996 102.969 10.5625 103.117 10.9062V11H101.98ZM100.182 10.1738C100.521 10.1738 100.844 10.0859 101.148 9.91016C101.453 9.73438 101.674 9.50586 101.811 9.22461V7.92383H100.961C99.6328 7.92383 98.9688 8.3125 98.9688 9.08984C98.9688 9.42969 99.082 9.69531 99.3086 9.88672C99.5352 10.0781 99.8262 10.1738 100.182 10.1738Z" fill="#7F8AB5"/>
</svg>
