<svg width="16" height="16" viewBox="0 0 16 16" fill="none" xmlns="http://www.w3.org/2000/svg">
<circle cx="8" cy="8" r="8" fill="#5465E7"/>
<path d="M10 11.7429V10.4571C10 10.3821 9.97656 10.3205 9.92969 10.2723C9.88281 10.2241 9.82292 10.2 9.75 10.2H9V6.08571C9 6.01071 8.97656 5.94911 8.92969 5.90089C8.88281 5.85268 8.82292 5.82857 8.75 5.82857H6.25C6.17708 5.82857 6.11719 5.85268 6.07031 5.90089C6.02344 5.94911 6 6.01071 6 6.08571V7.37143C6 7.44643 6.02344 7.50804 6.07031 7.55625C6.11719 7.60446 6.17708 7.62857 6.25 7.62857H7V10.2H6.25C6.17708 10.2 6.11719 10.2241 6.07031 10.2723C6.02344 10.3205 6 10.3821 6 10.4571V11.7429C6 11.8179 6.02344 11.8795 6.07031 11.9277C6.11719 11.9759 6.17708 12 6.25 12H9.75C9.82292 12 9.88281 11.9759 9.92969 11.9277C9.97656 11.8795 10 11.8179 10 11.7429ZM9 4.54286V3.25714C9 3.18214 8.97656 3.12054 8.92969 3.07232C8.88281 3.02411 8.82292 3 8.75 3H7.25C7.17708 3 7.11719 3.02411 7.07031 3.07232C7.02344 3.12054 7 3.18214 7 3.25714V4.54286C7 4.61786 7.02344 4.67946 7.07031 4.72768C7.11719 4.77589 7.17708 4.8 7.25 4.8H8.75C8.82292 4.8 8.88281 4.77589 8.92969 4.72768C8.97656 4.67946 9 4.61786 9 4.54286Z" fill="white"/>
</svg>
