<?xml version="1.0" encoding="UTF-8" standalone="no"?>
<svg
   xmlns:dc="http://purl.org/dc/elements/1.1/"
   xmlns:cc="http://creativecommons.org/ns#"
   xmlns:rdf="http://www.w3.org/1999/02/22-rdf-syntax-ns#"
   xmlns:svg="http://www.w3.org/2000/svg"
   xmlns="http://www.w3.org/2000/svg"
   xmlns:sodipodi="http://sodipodi.sourceforge.net/DTD/sodipodi-0.dtd"
   xmlns:inkscape="http://www.inkscape.org/namespaces/inkscape"
   version="1.1"
   id="svg2"
   xml:space="preserve"
   width="793.70135"
   height="1122.52"
   viewBox="0 0 793.70135 1122.52"
   sodipodi:docname="logo2.ai"><metadata
     id="metadata8"><rdf:RDF><cc:Work
         rdf:about=""><dc:format>image/svg+xml</dc:format><dc:type
           rdf:resource="http://purl.org/dc/dcmitype/StillImage" /></cc:Work></rdf:RDF></metadata><defs
     id="defs6"><clipPath
       clipPathUnits="userSpaceOnUse"
       id="clipPath18"><path
         d="M 0,841.89 H 595.276 V 0 H 0 Z"
         id="path16" /></clipPath></defs><sodipodi:namedview
     pagecolor="#ffffff"
     bordercolor="#666666"
     borderopacity="1"
     objecttolerance="10"
     gridtolerance="10"
     guidetolerance="10"
     inkscape:pageopacity="0"
     inkscape:pageshadow="2"
     inkscape:window-width="640"
     inkscape:window-height="480"
     id="namedview4" /><g
     id="g10"
     inkscape:groupmode="layer"
     inkscape:label="logo2"
     transform="matrix(1.3333333,0,0,-1.3333333,0,1122.52)"><g
       id="g12"><g
         id="g14"
         clip-path="url(#clipPath18)"><g
           id="g20"
           transform="translate(226.5049,440.4497)"><path
             d="m 0,0 c 0.443,1.172 0.77,1.958 1.041,2.764 3.367,9.995 6.723,19.993 10.089,29.987 0.332,0.984 0.647,1.982 1.086,2.918 1.275,2.716 3.805,3.855 6.777,3.121 2.649,-0.655 4.507,-3.073 4.283,-5.867 -0.106,-1.33 -0.478,-2.675 -0.94,-3.937 C 18.212,17.732 14.049,6.494 9.879,-4.743 9.019,-7.062 8.243,-9.434 7.151,-11.645 c -1.904,-3.858 -5.426,-5.356 -9.618,-4.376 -1.974,0.462 -3.524,1.564 -4.551,3.267 -0.779,1.291 -1.442,2.678 -1.965,4.093 -4.624,12.517 -9.211,25.047 -13.79,37.58 -0.355,0.972 -0.63,1.983 -0.836,2.997 -0.592,2.906 1.005,5.761 3.708,6.723 3.001,1.069 5.951,0.03 7.356,-2.717 0.687,-1.344 1.218,-2.78 1.706,-4.214 C -7.492,21.875 -4.177,12.032 -0.846,2.194 -0.645,1.6 -0.396,1.022 0,0"
             style="fill:#000000;fill-opacity:1;fill-rule:nonzero;stroke:none"
             id="path22" /></g><g
           id="g24"
           transform="translate(339.8662,447.416)"><path
             d="m 0,0 v -3.519 c 0,-4.479 0.019,-8.957 -0.016,-13.435 -0.007,-0.947 -0.084,-1.929 -0.346,-2.832 -0.586,-2.021 -2.096,-2.976 -4.174,-2.812 -1.868,0.148 -3.198,1.359 -3.549,3.321 -0.126,0.702 -0.133,1.432 -0.134,2.15 -0.008,8.957 -0.008,17.914 0,26.87 10e-4,0.718 0.029,1.443 0.12,2.153 0.252,1.942 1.399,3.229 3.195,3.834 1.875,0.631 3.661,0.347 5.071,-1.155 C 0.764,13.94 1.244,13.188 1.728,12.458 5.789,6.325 9.835,0.184 13.896,-5.949 c 0.285,-0.431 0.648,-0.81 1.399,-1.13 v 2.287 c 0,5.039 -0.008,10.077 0.008,15.115 0.003,0.877 0.004,1.774 0.179,2.626 0.393,1.904 1.853,3.037 3.76,3.057 1.949,0.021 3.409,-1.033 3.851,-2.935 0.215,-0.925 0.268,-1.902 0.27,-2.856 0.02,-8.877 0.013,-17.754 0.008,-26.631 0,-0.558 -0.029,-1.119 -0.075,-1.675 -0.151,-1.856 -0.722,-3.543 -2.636,-4.203 -1.995,-0.687 -4.026,-0.533 -5.606,1.005 -1.076,1.047 -1.977,2.305 -2.812,3.563 C 8.752,-12.462 5.318,-7.161 1.859,-1.877 1.424,-1.211 0.963,-0.562 0.514,0.094 0.343,0.063 0.171,0.032 0,0"
             style="fill:#000000;fill-opacity:1;fill-rule:nonzero;stroke:none"
             id="path26" /></g><g
           id="g28"
           transform="translate(384.4854,424.4829)"><path
             d="m 0,0 c -2.331,0.478 -4.718,0.779 -6.98,1.479 -2.936,0.907 -5.11,2.921 -6.588,5.616 -0.457,0.832 -0.842,1.736 -1.075,2.654 -0.668,2.642 0.366,4.869 2.462,5.523 2.184,0.681 3.88,-0.255 5.1,-2.818 0.138,-0.288 0.26,-0.584 0.392,-0.875 1.944,-4.291 6.002,-5.829 10.305,-3.892 1.72,0.775 2.959,1.982 2.95,3.986 -0.007,1.939 -1.258,3.076 -2.942,3.676 -1.649,0.588 -3.377,0.952 -5.05,1.48 -2.279,0.719 -4.614,1.331 -6.792,2.291 -3.96,1.745 -6.096,4.922 -5.972,9.267 0.122,4.307 2.343,7.42 6.34,9.072 4.761,1.969 9.642,2.068 14.514,0.399 2.24,-0.767 4.109,-2.126 5.478,-4.098 0.983,-1.418 1.556,-2.972 1.386,-4.725 -0.161,-1.662 -1.355,-3.107 -2.845,-3.504 -1.667,-0.444 -3.089,0.087 -4.153,1.619 -0.454,0.654 -0.801,1.381 -1.209,2.067 -1.972,3.304 -6.667,4.323 -9.793,2.129 -2.047,-1.436 -2.101,-3.541 0.003,-4.847 1.066,-0.662 2.315,-1.07 3.529,-1.439 1.907,-0.579 3.869,-0.979 5.781,-1.548 1.373,-0.409 2.723,-0.917 4.047,-1.47 C 17.585,18.403 16.477,6.98 10.326,3.011 7.181,0.981 3.732,0.262 0,0"
             style="fill:#000000;fill-opacity:1;fill-rule:nonzero;stroke:none"
             id="path30" /></g><g
           id="g32"
           transform="translate(407.4932,430.3906)"><path
             d="M 0,0 C -0.001,3.564 2.64,6.245 6.158,6.251 9.662,6.258 12.45,3.571 12.52,0.121 12.591,-3.419 9.679,-6.357 6.173,-6.282 2.599,-6.205 0.001,-3.562 0,0"
             style="fill:#000000;fill-opacity:1;fill-rule:nonzero;stroke:none"
             id="path34" /></g><g
           id="g36"
           transform="translate(273.6025,436.7656)"><path
             d="m 0,0 c -1.747,-3.281 -4.547,-4.828 -8.219,-4.778 -3.623,0.049 -6.319,1.785 -7.801,5.025 -2.13,4.658 -2.157,9.467 -0.072,14.156 1.415,3.181 4.002,4.888 7.529,5.036 3.762,0.158 6.7,-1.272 8.539,-4.627 C 1.275,12.441 1.67,9.849 1.563,7.255 1.63,4.652 1.19,2.236 0,0 M 10.375,7.405 C 10.296,8.6 10.259,9.799 10.133,10.989 9.336,18.514 4.792,24.068 -2.091,25.942 c -2.97,0.809 -6.011,0.968 -9.031,0.555 -7.283,-0.996 -12.117,-5.009 -14.211,-12.103 -1.44,-4.876 -1.337,-9.79 0.19,-14.632 1.761,-5.581 5.458,-9.313 11.097,-10.952 3.664,-1.066 7.415,-1.091 11.14,-0.269 6.052,1.334 10.101,5.028 11.999,10.863 0.828,2.545 1.056,5.286 1.557,7.938 -0.091,0.021 -0.183,0.042 -0.275,0.063"
             style="fill:#000000;fill-opacity:1;fill-rule:nonzero;stroke:none"
             id="path38" /></g><g
           id="g40"
           transform="translate(314.916,436.8271)"><path
             d="m 0,0 c -1.726,-3.288 -4.506,-4.871 -8.182,-4.839 -3.726,0.031 -6.457,1.827 -7.945,5.176 -2.042,4.596 -2.056,9.328 -0.029,13.941 1.399,3.187 3.964,4.927 7.49,5.097 3.754,0.181 6.712,-1.216 8.574,-4.563 C 1.224,12.449 1.63,9.859 1.53,7.223 1.604,4.662 1.177,2.244 0,0 M 10.341,7.345 C 10.263,8.54 10.226,9.739 10.1,10.929 9.302,18.454 4.757,24.008 -2.127,25.881 c -2.97,0.808 -6.011,0.967 -9.031,0.554 -7.282,-0.996 -12.115,-5.01 -14.209,-12.105 -1.44,-4.876 -1.337,-9.79 0.191,-14.631 1.761,-5.582 5.459,-9.312 11.099,-10.951 3.664,-1.066 7.415,-1.09 11.139,-0.269 6.052,1.335 10.1,5.03 11.998,10.865 0.828,2.546 1.056,5.286 1.557,7.939 -0.092,0.02 -0.184,0.041 -0.276,0.062"
             style="fill:#000000;fill-opacity:1;fill-rule:nonzero;stroke:none"
             id="path42" /></g></g></g></g></svg>
