<svg width="17" height="17" viewBox="0 0 17 17" fill="none" xmlns="http://www.w3.org/2000/svg">
<path d="M8.66634 13.3917L13.8163 16.5001L12.4497 10.6417L16.9997 6.70008L11.008 6.19175L8.66634 0.666748L6.32467 6.19175L0.333008 6.70008L4.88301 10.6417L3.51634 16.5001L8.66634 13.3917Z" fill="#F3533D"/>
</svg>
