<svg width="20" height="20" viewBox="0 0 20 20" fill="none" xmlns="http://www.w3.org/2000/svg">
<path fill-rule="evenodd" clip-rule="evenodd" d="M12.5001 13.7501V8.75008H15.8334L10.0001 2.91675L4.16675 8.75008H7.50008V13.7501H12.5001ZM10.0001 5.27508L11.8084 7.08341H10.8334V12.0834H9.16675V7.08341H8.19175L10.0001 5.27508ZM15.8334 17.0834V15.4167H4.16675V17.0834H15.8334Z" fill="#5465E7"/>
</svg>
