<svg width="32" height="32" viewBox="0 0 32 32" fill="none" xmlns="http://www.w3.org/2000/svg">
<path d="M16.0001 5.33337L17.8801 7.21337L10.4401 14.6667H26.6667V17.3334H10.4401L17.8801 24.7867L16.0001 26.6667L5.33342 16L16.0001 5.33337Z" fill="#BBBFCD"/>
</svg>
