<svg width="14" height="14" viewBox="0 0 14 14" fill="none" xmlns="http://www.w3.org/2000/svg">
<path d="M6.99984 0.333344L8.17484 1.50834L3.52484 6.16668H13.6665V7.83334H3.52484L8.17484 12.4917L6.99984 13.6667L0.333172 7.00001L6.99984 0.333344Z" fill="#858BA1"/>
</svg>
