<svg width="24" height="24" viewBox="0 0 24 24" fill="none" xmlns="http://www.w3.org/2000/svg">
<rect opacity="0.1" width="24" height="24" rx="5" fill="#10A9FF"/>
<path fill-rule="evenodd" clip-rule="evenodd" d="M17.0014 12C17.0014 12.2267 16.9814 12.44 16.9547 12.6533L18.3614 13.7533C18.488 13.8533 18.5214 14.0333 18.4414 14.18L17.108 16.4867C17.048 16.5933 16.9347 16.6533 16.8214 16.6533C16.7814 16.6533 16.7414 16.6467 16.7014 16.6333L15.0414 15.9667C14.6947 16.2267 14.3214 16.4533 13.9147 16.62L13.6614 18.3867C13.6414 18.5467 13.5014 18.6667 13.3347 18.6667H10.668C10.5014 18.6667 10.3614 18.5467 10.3414 18.3867L10.088 16.62C9.68136 16.4533 9.30802 16.2333 8.96136 15.9667L7.30136 16.6333C7.26802 16.6467 7.22802 16.6533 7.18802 16.6533C7.06802 16.6533 6.95469 16.5933 6.89469 16.4867L5.56136 14.18C5.48136 14.0333 5.51469 13.8533 5.64136 13.7533L7.04802 12.6533C7.02136 12.44 7.00136 12.22 7.00136 12C7.00136 11.78 7.02136 11.56 7.04802 11.3467L5.64136 10.2467C5.51469 10.1467 5.47469 9.96667 5.56136 9.82L6.89469 7.51334C6.95469 7.40667 7.06802 7.34667 7.18136 7.34667C7.22136 7.34667 7.26136 7.35334 7.30136 7.36667L8.96136 8.03334C9.30802 7.77334 9.68136 7.54667 10.088 7.38L10.3414 5.61334C10.3614 5.45334 10.5014 5.33334 10.668 5.33334H13.3347C13.5014 5.33334 13.6414 5.45334 13.6614 5.61334L13.9147 7.38C14.3214 7.54667 14.6947 7.76667 15.0414 8.03334L16.7014 7.36667C16.7347 7.35334 16.7747 7.34667 16.8147 7.34667C16.9347 7.34667 17.048 7.40667 17.108 7.51334L18.4414 9.82C18.5214 9.96667 18.488 10.1467 18.3614 10.2467L16.9547 11.3467C16.9814 11.56 17.0014 11.7733 17.0014 12ZM15.668 12C15.668 11.86 15.6614 11.72 15.6347 11.5133L15.5414 10.76L16.1347 10.2933L16.848 9.72667L16.3814 8.92L15.5347 9.26L14.828 9.54667L14.2214 9.08C13.9547 8.88 13.688 8.72667 13.4014 8.60667L12.6947 8.32L12.588 7.56667L12.4614 6.66667H11.5347L11.4014 7.56667L11.2947 8.32L10.588 8.60667C10.3147 8.72 10.0414 8.88 9.75469 9.09334L9.15469 9.54667L8.46135 9.26667L7.61469 8.92667L7.14802 9.73334L7.86802 10.2933L8.46135 10.76L8.36802 11.5133C8.34802 11.7133 8.33469 11.8667 8.33469 12C8.33469 12.1333 8.34802 12.2867 8.36802 12.4933L8.46135 13.2467L7.86802 13.7133L7.14802 14.2733L7.61469 15.08L8.46135 14.74L9.16802 14.4533L9.77469 14.92C10.0414 15.12 10.308 15.2733 10.5947 15.3933L11.3014 15.68L11.408 16.4333L11.5347 17.3333H12.468L12.6014 16.4333L12.708 15.68L13.4147 15.3933C13.688 15.28 13.9614 15.12 14.248 14.9067L14.848 14.4533L15.5414 14.7333L16.388 15.0733L16.8547 14.2667L16.1347 13.7067L15.5414 13.24L15.6347 12.4867C15.6547 12.2867 15.668 12.14 15.668 12ZM12.0014 9.33334C10.528 9.33334 9.33469 10.5267 9.33469 12C9.33469 13.4733 10.528 14.6667 12.0014 14.6667C13.4747 14.6667 14.668 13.4733 14.668 12C14.668 10.5267 13.4747 9.33334 12.0014 9.33334ZM10.668 12C10.668 12.7333 11.268 13.3333 12.0014 13.3333C12.7347 13.3333 13.3347 12.7333 13.3347 12C13.3347 11.2667 12.7347 10.6667 12.0014 10.6667C11.268 10.6667 10.668 11.2667 10.668 12Z" fill="#10A9FF"/>
</svg>
