<svg width="24" height="24" viewBox="0 0 24 24" fill="none" xmlns="http://www.w3.org/2000/svg">
<rect opacity="0.1" width="24" height="24" rx="5" fill="#F3C83D"/>
<path fill-rule="evenodd" clip-rule="evenodd" d="M15.9999 14.5V11.1667C15.9999 9.12 14.9133 7.40667 12.9999 6.95333V6.5C12.9999 5.94667 12.5533 5.5 11.9999 5.5C11.4466 5.5 10.9999 5.94667 10.9999 6.5V6.95333C9.09327 7.40667 7.99994 9.11333 7.99994 11.1667V14.5L6.6666 15.8333V16.5H17.3333V15.8333L15.9999 14.5ZM11.9999 18.5C12.7333 18.5 13.3333 17.9 13.3333 17.1667H10.6666C10.6666 17.9 11.2666 18.5 11.9999 18.5ZM9.33327 15.1667H14.6666V11.1667C14.6666 9.51333 13.6599 8.16667 11.9999 8.16667C10.3399 8.16667 9.33327 9.51333 9.33327 11.1667V15.1667ZM9.05327 6.55333L8.09994 5.59999C6.49994 6.81999 5.4466 8.69999 5.35327 10.8333H6.6866C6.78661 9.06666 7.69327 7.51999 9.05327 6.55333ZM18.6466 10.8333H17.3133C17.2133 9.06666 16.2999 7.51999 14.9533 6.55333L15.8999 5.59999C17.4933 6.81999 18.5466 8.69999 18.6466 10.8333Z" fill="#F3C83D"/>
</svg>
