<svg width="50" height="50" viewBox="0 0 50 50" fill="none" xmlns="http://www.w3.org/2000/svg">
<rect opacity="0.1" width="50" height="50" rx="15" fill="#5465E7"/>
<path fill-rule="evenodd" clip-rule="evenodd" d="M35.6112 31.3976C35.8792 31.3976 36.1349 31.3449 36.3684 31.2493V33.883C36.3684 35.25 35.25 36.3684 33.883 36.3684H16.4854C15.106 36.3684 14 35.25 14 33.883V16.4854C14 15.1184 15.106 14 16.4854 14H33.883C35.25 14 36.3684 15.1184 36.3684 16.4854V19.1191C36.1349 19.0234 35.8792 18.9707 35.6112 18.9707H25.9416C24.8371 18.9707 23.9416 19.8662 23.9416 20.9707V29.3976C23.9416 30.5022 24.8371 31.3976 25.9416 31.3976H35.6112ZM35.6112 20.9707H25.9416V29.3976H35.6112V20.9707ZM30.7762 23.3201C29.7467 23.3201 28.9122 24.1547 28.9122 25.1842C28.9122 26.2137 29.7467 27.0482 30.7762 27.0482C31.8057 27.0482 32.6402 26.2137 32.6402 25.1842C32.6402 24.1547 31.8057 23.3201 30.7762 23.3201Z" fill="#5465E7"/>
</svg>
