<svg width="48" height="48" viewBox="0 0 48 48" fill="none" xmlns="http://www.w3.org/2000/svg">
<rect opacity="0.1" width="48" height="48" rx="15" fill="#F3C83D"/>
<g clip-path="url(#clip0)">
<path d="M18.5491 26.8776C19.1641 27.3986 19.5718 28.1044 19.7192 28.8748H23.2971V23.8637C22.0854 23.5506 21.1877 22.4482 21.1877 21.14H22.594C22.594 21.9155 23.2249 22.5464 24.0003 22.5464C24.7757 22.5464 25.4066 21.9155 25.4066 21.14H26.8129C26.8129 22.4482 25.9152 23.5506 24.7034 23.8637V28.8747H28.2822C28.4311 28.1045 28.8428 27.3952 29.4636 26.8673C31.354 25.2599 32.4381 22.9161 32.4381 20.4369C32.4381 12.8732 23.2137 9.15865 17.9605 14.5554C14.5321 18.0776 14.8252 23.7231 18.5491 26.8776Z" fill="#F3C83D"/>
<path d="M24.0001 36C25.551 36 26.8127 34.7383 26.8127 33.1874H21.1875C21.1875 34.7383 22.4492 36 24.0001 36Z" fill="#F3C83D"/>
<path d="M19.7812 30.281H28.2191V31.7811H19.7812V30.281Z" fill="#F3C83D"/>
</g>
<defs>
<clipPath id="clip0">
<rect width="24" height="24" fill="white" transform="translate(12 12)"/>
</clipPath>
</defs>
</svg>
