<svg width="48" height="48" viewBox="0 0 48 48" fill="none" xmlns="http://www.w3.org/2000/svg">
<rect opacity="0.1" width="48" height="48" rx="15" fill="#62C440"/>
<g clip-path="url(#clip0)">
<path d="M24.123 30.9614C24.876 31.7154 24.8713 32.9283 24.123 33.6766L22.4297 35.37C21.6876 36.1139 20.4678 36.1233 19.7145 35.37L12.6296 28.2851C11.8813 27.5363 11.8813 26.3182 12.6296 25.5699L14.3229 23.8766C15.0713 23.1282 16.2842 23.1236 17.0381 23.8766L24.123 30.9614ZM12.915 30.1303C12.7418 29.9571 12.4538 29.9889 12.3201 30.1942C11.7889 31.0095 11.9528 31.9923 12.5615 32.6011L15.3986 35.4382C16.002 36.0416 16.9841 36.2152 17.8051 35.6798C18.0105 35.5459 18.0427 35.258 17.8694 35.0846L12.915 30.1303ZM25.2874 20.0977C24.9874 19.7982 24.5012 19.7982 24.2012 20.0977L20.0975 24.2015C19.7975 24.5015 19.7975 24.9877 20.0975 25.2877L22.7119 27.9021C23.0109 28.2011 23.4971 28.2021 23.7981 27.9021L27.9018 23.7983C28.2018 23.4983 28.2018 23.0121 27.9018 22.7122L25.2874 20.0977ZM35.0852 17.8687C35.2585 18.042 35.5466 18.0097 35.6804 17.8043C36.2154 16.9831 36.0397 16.0007 35.4378 15.3988L32.6007 12.5617C31.9935 11.9549 31.0113 11.7877 30.195 12.3194C29.9896 12.4531 29.9577 12.7411 30.1309 12.9144L35.0852 17.8687ZM28.2848 12.6299C27.5361 11.8816 26.3179 11.8811 25.5696 12.6299L23.8763 14.3232C23.128 15.0715 23.1233 16.2844 23.8763 17.0384L30.9611 24.1233C31.7158 24.877 32.9288 24.8708 33.6763 24.1233L35.3697 22.4299C36.118 21.6817 36.118 20.4635 35.3697 19.7147L28.2848 12.6299Z" fill="#62C440"/>
</g>
<defs>
<clipPath id="clip0">
<rect width="24" height="24" fill="white" transform="translate(12 12)"/>
</clipPath>
</defs>
</svg>
