<svg width="48" height="48" viewBox="0 0 48 48" fill="none" xmlns="http://www.w3.org/2000/svg">
<rect opacity="0.1" width="48" height="48" rx="15" fill="#F3533D"/>
<path d="M35.2251 27.6011C34.544 25.0736 31.3659 21.8839 27.129 19.4746C22.0337 16.5773 15.6976 15.0798 13.9915 18.0106C13.6063 18.6727 13.5309 19.4983 13.7736 20.3989C14.4548 22.9261 17.6328 26.1161 21.87 28.5251C25.0233 30.3182 28.6554 31.5749 31.3697 31.5749C33.034 31.5749 34.3535 31.1026 35.0059 29.992C35.0064 29.9912 35.007 29.9901 35.0075 29.9893C35.3928 29.3274 35.4681 28.5017 35.2251 27.6011ZM33.6284 29.1848C32.7527 30.6689 28.0339 30.194 22.6589 27.1378C18.2405 24.6253 15.7867 21.7343 15.315 19.9836C15.1838 19.4966 15.2027 19.1031 15.3711 18.8139C15.6755 18.291 16.4764 18.0218 17.6149 18.0218C19.7111 18.0218 22.9516 18.9355 26.3398 20.8624C30.7583 23.3747 33.212 26.2656 33.6838 28.0164C33.8147 28.5028 33.7963 28.8955 33.6284 29.1848Z" fill="#F3533D"/>
<path d="M24.5002 12C21.0782 12 19.2319 18.1823 19.2319 23.9997C19.2319 29.8172 21.0782 36 24.5002 36C27.5037 36 29.7685 30.8413 29.7685 24C29.7685 17.1589 27.5037 12 24.5002 12ZM24.5002 34.4038C22.767 34.4038 20.8284 29.9545 20.8284 24C20.8284 18.0455 22.767 13.5965 24.5002 13.5965C26.2335 13.5965 28.172 18.0455 28.172 24C28.172 29.9545 26.2334 34.4038 24.5002 34.4038Z" fill="#F3533D"/>
<path d="M35.0082 18.0104C35.0077 18.0096 35.0072 18.0085 35.0067 18.0077C33.2897 15.0848 26.9571 16.5821 21.8705 19.4743C17.633 21.8839 14.4552 25.0736 13.7741 27.6008C13.5314 28.5014 13.6068 29.3273 13.992 29.9891C14.6412 31.1042 15.9602 31.5781 17.6261 31.5781C20.3393 31.5781 23.9728 30.3203 27.1295 28.5249C31.3668 26.1158 34.5448 22.9261 35.2259 20.3987C35.4688 19.4977 35.3935 18.6721 35.0082 18.0104ZM33.6842 19.9836C33.2122 21.7344 30.7582 24.6255 26.3403 27.1379C21.1111 30.1112 16.236 30.6713 15.3713 29.1858C15.2029 28.8966 15.184 28.5031 15.3152 28.0164C15.7872 26.2657 18.2409 23.3747 22.6594 20.8625C26.108 18.9012 29.2865 18.003 31.3532 18.003C32.5077 18.003 33.3152 18.2834 33.6289 18.8155C33.7968 19.1045 33.8151 19.4975 33.6842 19.9836Z" fill="#F3533D"/>
<path d="M24.4996 21.6053C23.1794 21.6053 22.105 22.6798 22.105 24C22.105 25.3205 23.1794 26.3947 24.4996 26.3947C25.8199 26.3947 26.8941 25.3205 26.8943 24C26.8943 22.6795 25.8199 21.6053 24.4996 21.6053ZM24.4996 24.7982C24.0595 24.7982 23.7014 24.4401 23.7014 24C23.7014 23.5599 24.0595 23.2018 24.4996 23.2018C24.9398 23.2018 25.2976 23.5599 25.2979 24C25.2979 24.4401 24.9397 24.7982 24.4996 24.7982Z" fill="#F3533D"/>
</svg>
