<svg width="120" height="37" viewBox="0 0 120 37" fill="none" xmlns="http://www.w3.org/2000/svg">
<path d="M61.0832 21.6112C58.7812 21.6112 56.9092 23.3592 56.9092 25.7732C56.9092 28.1732 58.7812 29.9352 61.0832 29.9352C63.3852 29.9352 65.2572 28.1752 65.2572 25.7732C65.2572 23.3712 63.3872 21.6112 61.0832 21.6112ZM61.0832 28.2972C59.8272 28.2972 58.7312 27.2502 58.7312 25.7732C58.7312 24.2712 59.8142 23.2492 61.0832 23.2492C62.3522 23.2492 63.4352 24.2712 63.4352 25.7732C63.4232 27.2502 62.3392 28.2972 61.0832 28.2972ZM72.2632 22.5472H72.2032C71.7972 22.0552 71.0092 21.6112 70.0112 21.6112C67.9312 21.6112 66.0112 23.4462 66.0112 25.7852C66.0112 28.1122 67.9192 29.9352 70.0112 29.9352C71.0082 29.9352 71.7962 29.4922 72.2032 28.9872H72.2632V29.5902C72.2632 31.1782 71.4132 32.0282 70.0472 32.0282C68.9272 32.0282 68.2472 31.2282 67.9542 30.5512L66.3662 31.2162C66.8222 32.3242 68.0402 33.6783 70.0602 33.6783C72.2022 33.6783 74.0122 32.4222 74.0122 29.3442V21.8702H72.2762L72.2632 22.5472ZM70.1702 28.2972C68.9142 28.2972 67.8552 27.2372 67.8552 25.7852C67.8552 24.3202 68.9152 23.2492 70.1702 23.2492C71.4142 23.2492 72.3862 24.3192 72.3862 25.7852C72.3862 27.2512 71.4132 28.2972 70.1702 28.2972ZM51.9722 21.6112C49.6702 21.6112 47.7982 23.3592 47.7982 25.7732C47.7982 28.1732 49.6682 29.9352 51.9722 29.9352C54.2762 29.9352 56.1462 28.1752 56.1462 25.7732C56.1462 23.3712 54.2762 21.6112 51.9722 21.6112ZM51.9722 28.2972C50.7162 28.2972 49.6202 27.2502 49.6202 25.7732C49.6202 24.2712 50.7032 23.2492 51.9722 23.2492C53.2282 23.2492 54.3242 24.2712 54.3242 25.7732C54.3122 27.2502 53.2282 28.2972 51.9722 28.2972ZM41.1252 22.8802V24.6402H45.3482C45.2252 25.6372 44.8922 26.3642 44.3882 26.8702C43.7722 27.4862 42.8122 28.1632 41.1252 28.1632C38.5272 28.1632 36.4952 26.0702 36.4952 23.4632C36.4952 20.8562 38.5272 18.7632 41.1252 18.7632C42.5292 18.7632 43.5512 19.3172 44.3252 20.0192L45.5692 18.7752C44.5092 17.7752 43.1072 16.9902 41.1372 16.9902C37.5792 16.9902 34.5742 19.8962 34.5742 23.4542C34.5742 27.0122 37.5662 29.9182 41.1372 29.9182C43.0572 29.9182 44.5112 29.2902 45.6432 28.1182C46.8132 26.9482 47.1702 25.3112 47.1702 23.9932C47.1722 23.6216 47.1387 23.2506 47.0702 22.8853L41.1252 22.8802ZM85.4502 24.2802C85.1052 23.3442 84.0462 21.6332 81.8922 21.6332C79.7502 21.6332 77.9642 23.3202 77.9642 25.7952C77.9642 28.1222 79.7242 29.9572 82.0892 29.9572C83.9972 29.9572 85.1062 28.7872 85.5612 28.1102L84.1452 27.1622C83.6772 27.8622 83.0252 28.3073 82.1012 28.3073C81.1772 28.3073 80.5132 27.8772 80.0812 27.0512L85.6462 24.7492L85.4502 24.2802ZM79.7862 25.6602C79.7362 24.0472 81.0302 23.2343 81.9662 23.2343C82.6922 23.2343 83.3082 23.5912 83.5062 24.1202L79.7862 25.6602ZM75.2562 29.6982H77.0782V17.4722H75.2562V29.6982ZM94.0202 17.4722H89.6502V29.6982H91.4722V25.0682H94.0222C96.0422 25.0682 98.0362 23.6032 98.0362 21.2632C98.0362 18.9362 96.0412 17.4713 94.0222 17.4713L94.0202 17.4722ZM94.0702 23.3452H91.4722V19.1592H94.0702C95.4372 19.1592 96.2122 20.2922 96.2122 21.2522C96.2122 22.2122 95.4362 23.3452 94.0702 23.3452ZM99.0442 29.6982H100.866V17.4722H99.0442V29.6982ZM105.348 21.5963C104.031 21.5963 102.652 22.1762 102.085 23.4662L103.71 24.1432C104.055 23.4662 104.695 23.2432 105.372 23.2432C106.32 23.2432 107.28 23.8092 107.292 24.8192V24.9422C106.96 24.7572 106.258 24.4742 105.384 24.4742C103.636 24.4742 101.864 25.4342 101.864 27.2322C101.864 28.8702 103.292 29.9162 104.904 29.9162C106.134 29.9162 106.812 29.3622 107.231 28.7222H107.291V29.6702H109.051V24.9702C109.063 22.8032 107.438 21.5842 105.345 21.5842L105.348 21.5963ZM105.126 28.2962C104.523 28.2962 103.698 28.0012 103.698 27.2622C103.698 26.3142 104.732 25.9572 105.631 25.9572C106.431 25.9572 106.813 26.1293 107.293 26.3633C107.228 26.8937 106.973 27.3823 106.574 27.738C106.175 28.0937 105.661 28.2922 105.126 28.2962ZM115.481 21.8562L113.388 27.1632H113.328L111.161 21.8562H109.191L112.441 29.2682L110.581 33.4052H112.489L117.512 21.8682H115.48L115.481 21.8562Z" fill="white"/>
<path d="M39.623 4.75977C39.623 4.30664 39.457 3.94727 39.125 3.68164C38.7969 3.41211 38.334 3.27734 37.7363 3.27734C37.2363 3.27734 36.8164 3.41602 36.4766 3.69336C36.1406 3.9668 35.9727 4.30664 35.9727 4.71289H34.8477C34.8477 4.25977 34.9707 3.85352 35.2168 3.49414C35.4668 3.13477 35.8145 2.85547 36.2598 2.65625C36.7051 2.45312 37.1973 2.35156 37.7363 2.35156C38.6895 2.35156 39.4297 2.56641 39.957 2.99609C40.4844 3.42188 40.748 4.01562 40.748 4.77734C40.748 5.17188 40.627 5.53125 40.3848 5.85547C40.1426 6.17969 39.8047 6.43555 39.3711 6.62305C40.375 6.95898 40.877 7.625 40.877 8.62109C40.877 9.38672 40.5918 9.99414 40.0215 10.4434C39.4512 10.8926 38.6895 11.1172 37.7363 11.1172C37.1699 11.1172 36.6543 11.0176 36.1895 10.8184C35.7285 10.6152 35.3691 10.3281 35.1113 9.95703C34.8535 9.58594 34.7246 9.14453 34.7246 8.63281H35.8496C35.8496 9.08203 36.0273 9.45703 36.3828 9.75781C36.7383 10.0547 37.1895 10.2031 37.7363 10.2031C38.3496 10.2031 38.8379 10.0605 39.2012 9.77539C39.5684 9.49023 39.752 9.11328 39.752 8.64453C39.752 7.64453 39.1328 7.13477 37.8945 7.11523H36.8398V6.18945H37.8887C38.459 6.17773 38.8906 6.04883 39.1836 5.80273C39.4766 5.55664 39.623 5.20898 39.623 4.75977ZM46.1152 11C46.0527 10.875 46.002 10.6523 45.9629 10.332C45.459 10.8555 44.8574 11.1172 44.1582 11.1172C43.5332 11.1172 43.0195 10.9414 42.6172 10.5898C42.2188 10.2344 42.0195 9.78516 42.0195 9.24219C42.0195 8.58203 42.2695 8.07031 42.7695 7.70703C43.2734 7.33984 43.9805 7.15625 44.8906 7.15625H45.9453V6.6582C45.9453 6.2793 45.832 5.97852 45.6055 5.75586C45.3789 5.5293 45.0449 5.41602 44.6035 5.41602C44.2168 5.41602 43.8926 5.51367 43.6309 5.70898C43.3691 5.9043 43.2383 6.14062 43.2383 6.41797H42.1484C42.1484 6.10156 42.2598 5.79688 42.4824 5.50391C42.709 5.20703 43.0137 4.97266 43.3965 4.80078C43.7832 4.62891 44.207 4.54297 44.668 4.54297C45.3984 4.54297 45.9707 4.72656 46.3848 5.09375C46.7988 5.45703 47.0137 5.95898 47.0293 6.59961V9.51758C47.0293 10.0996 47.1035 10.5625 47.252 10.9062V11H46.1152ZM44.3164 10.1738C44.6562 10.1738 44.9785 10.0859 45.2832 9.91016C45.5879 9.73438 45.8086 9.50586 45.9453 9.22461V7.92383H45.0957C43.7676 7.92383 43.1035 8.3125 43.1035 9.08984C43.1035 9.42969 43.2168 9.69531 43.4434 9.88672C43.6699 10.0781 43.9609 10.1738 44.3164 10.1738ZM52.8242 5.55664H49.9004V11H48.8105V4.66016H52.8242V5.55664ZM59.123 7.90039C59.123 8.86523 58.9023 9.64258 58.4609 10.2324C58.0195 10.8223 57.4219 11.1172 56.668 11.1172C55.8984 11.1172 55.293 10.873 54.8516 10.3848V13.4375H53.7676V4.66016H54.7578L54.8105 5.36328C55.252 4.81641 55.8652 4.54297 56.6504 4.54297C57.4121 4.54297 58.0137 4.83008 58.4551 5.4043C58.9004 5.97852 59.123 6.77734 59.123 7.80078V7.90039ZM58.0391 7.77734C58.0391 7.0625 57.8867 6.49805 57.582 6.08398C57.2773 5.66992 56.8594 5.46289 56.3281 5.46289C55.6719 5.46289 55.1797 5.75391 54.8516 6.33594V9.36523C55.1758 9.94336 55.6719 10.2324 56.3398 10.2324C56.8594 10.2324 57.2715 10.0273 57.5762 9.61719C57.8848 9.20312 58.0391 8.58984 58.0391 7.77734ZM62.5098 9.41211L63.9863 4.66016H65.1465L62.5977 11.9785C62.2031 13.0332 61.5762 13.5605 60.7168 13.5605L60.5117 13.543L60.1074 13.4668V12.5879L60.4004 12.6113C60.7676 12.6113 61.0527 12.5371 61.2559 12.3887C61.4629 12.2402 61.6328 11.9688 61.7656 11.5742L62.0059 10.9297L59.7441 4.66016H60.9277L62.5098 9.41211ZM69.6055 6.39453C69.6055 6.09766 69.4922 5.86328 69.2656 5.69141C69.0391 5.51562 68.7285 5.42773 68.334 5.42773C67.9512 5.42773 67.6309 5.52734 67.373 5.72656C67.1191 5.92578 66.9922 6.16016 66.9922 6.42969H65.9141C65.9141 5.87891 66.1445 5.42773 66.6055 5.07617C67.0664 4.72461 67.6426 4.54883 68.334 4.54883C69.0762 4.54883 69.6543 4.70898 70.0684 5.0293C70.4824 5.3457 70.6895 5.79883 70.6895 6.38867C70.6895 6.67383 70.6035 6.93555 70.4316 7.17383C70.2598 7.41211 70.0156 7.60156 69.6992 7.74219C70.4375 7.99219 70.8066 8.48438 70.8066 9.21875C70.8066 9.80078 70.582 10.2617 70.1328 10.6016C69.6836 10.9414 69.084 11.1113 68.334 11.1113C67.6035 11.1113 67 10.9336 66.5234 10.5781C66.0508 10.2188 65.8145 9.73438 65.8145 9.125H66.8926C66.8926 9.43359 67.0293 9.69922 67.3027 9.92188C67.5801 10.1406 67.9238 10.25 68.334 10.25C68.748 10.25 69.082 10.1543 69.3359 9.96289C69.5898 9.77148 69.7168 9.52344 69.7168 9.21875C69.7168 8.86328 69.6094 8.60938 69.3945 8.45703C69.1836 8.30078 68.8535 8.22266 68.4043 8.22266H67.3203V7.30859H68.498C69.2363 7.28906 69.6055 6.98438 69.6055 6.39453ZM76.3145 4.66016H77.3984V11H76.3145V6.37695L73.3906 11H72.3066V4.66016H73.3906V9.28906L76.3145 4.66016ZM83.8496 5.53906H81.7227V11H80.6387V5.53906H78.5527V4.66016H83.8496V5.53906ZM86.0879 6.8457H87.7344C88.4531 6.85352 89.0215 7.04102 89.4395 7.4082C89.8574 7.77539 90.0664 8.27344 90.0664 8.90234C90.0664 9.53516 89.8516 10.043 89.4219 10.4258C88.9922 10.8086 88.4141 11 87.6875 11H85.0039V4.66016H86.0879V6.8457ZM86.0879 7.73047V10.1152H87.6992C88.1055 10.1152 88.4199 10.0117 88.6426 9.80469C88.8652 9.59375 88.9766 9.30664 88.9766 8.94336C88.9766 8.5918 88.8672 8.30469 88.6484 8.08203C88.4336 7.85547 88.1309 7.73828 87.7402 7.73047H86.0879ZM99.5762 11H98.4922V8.29297H95.5801V11H94.4902V4.66016H95.5801V7.4082H98.4922V4.66016H99.5762V11ZM105.236 11C105.174 10.875 105.123 10.6523 105.084 10.332C104.58 10.8555 103.979 11.1172 103.279 11.1172C102.654 11.1172 102.141 10.9414 101.738 10.5898C101.34 10.2344 101.141 9.78516 101.141 9.24219C101.141 8.58203 101.391 8.07031 101.891 7.70703C102.395 7.33984 103.102 7.15625 104.012 7.15625H105.066V6.6582C105.066 6.2793 104.953 5.97852 104.727 5.75586C104.5 5.5293 104.166 5.41602 103.725 5.41602C103.338 5.41602 103.014 5.51367 102.752 5.70898C102.49 5.9043 102.359 6.14062 102.359 6.41797H101.27C101.27 6.10156 101.381 5.79688 101.604 5.50391C101.83 5.20703 102.135 4.97266 102.518 4.80078C102.904 4.62891 103.328 4.54297 103.789 4.54297C104.52 4.54297 105.092 4.72656 105.506 5.09375C105.92 5.45703 106.135 5.95898 106.15 6.59961V9.51758C106.15 10.0996 106.225 10.5625 106.373 10.9062V11H105.236ZM103.438 10.1738C103.777 10.1738 104.1 10.0859 104.404 9.91016C104.709 9.73438 104.93 9.50586 105.066 9.22461V7.92383H104.217C102.889 7.92383 102.225 8.3125 102.225 9.08984C102.225 9.42969 102.338 9.69531 102.564 9.88672C102.791 10.0781 103.082 10.1738 103.438 10.1738Z" fill="white"/>
<path d="M2.43611 5.37962C2.16354 5.66582 2 6.11557 2 6.68797V27.308C2 27.8804 2.16354 28.3302 2.43611 28.6164L2.50426 28.6845L14.0613 17.1275V16.8549L2.50426 5.29785L2.43611 5.37962Z" fill="url(#paint0_linear)"/>
<path d="M17.9048 20.9844L14.0615 17.1275V16.8549L17.9184 12.998L18.0002 13.0526L22.5658 15.642C23.8741 16.3779 23.8741 17.5909 22.5658 18.3405L18.0002 20.9299L17.9048 20.9844Z" fill="url(#paint1_linear)"/>
<path d="M18.0004 20.9299L14.0617 16.9912L2.43652 28.6164C2.85901 29.0661 3.58133 29.1343 4.37178 28.6709L18.0004 20.9299Z" fill="url(#paint2_linear)"/>
<path d="M18.0004 13.0662L4.37178 5.3252C3.5677 4.87546 2.85901 4.92997 2.43652 5.37972L14.0617 17.0049L18.0004 13.0662Z" fill="url(#paint3_linear)"/>
<path opacity="0.2" d="M17.905 20.8481L4.37178 28.5347C3.60858 28.9708 2.94078 28.9435 2.50467 28.5483L2.43652 28.6164L2.50467 28.6846C2.94078 29.0798 3.62221 29.1071 4.37178 28.671L18.0004 20.9299L17.905 20.8481Z" fill="black"/>
<path opacity="0.12" d="M2.43611 28.4801C2.16354 28.1939 2 27.7442 2 27.1718V27.3081C2 27.8805 2.16354 28.3302 2.43611 28.6164L2.50426 28.5483L2.43611 28.4801ZM22.5519 18.2042L17.9046 20.8481L17.9863 20.9299L22.5519 18.3404C23.2061 17.9725 23.5332 17.4818 23.5332 16.9912C23.4787 17.441 23.1516 17.8634 22.5519 18.2042Z" fill="black"/>
<path opacity="0.25" d="M4.37138 5.44781L22.5519 15.7783C23.138 16.119 23.4787 16.5415 23.5332 16.9912C23.5332 16.5006 23.2061 16.01 22.5519 15.642L4.37138 5.31152C3.06303 4.57558 2 5.18886 2 6.67438V6.81067C2 5.32515 3.06303 4.71186 4.37138 5.44781Z" fill="white"/>
<defs>
<linearGradient id="paint0_linear" x1="13.025" y1="6.46364" x2="-2.62568" y2="22.1143" gradientUnits="userSpaceOnUse">
<stop stop-color="#00A0FF"/>
<stop offset="0.007" stop-color="#00A1FF"/>
<stop offset="0.26" stop-color="#00BEFF"/>
<stop offset="0.512" stop-color="#00D2FF"/>
<stop offset="0.76" stop-color="#00DFFF"/>
<stop offset="1" stop-color="#00E3FF"/>
</linearGradient>
<linearGradient id="paint1_linear" x1="24.2527" y1="16.998" x2="1.68771" y2="16.998" gradientUnits="userSpaceOnUse">
<stop stop-color="#FFE000"/>
<stop offset="0.409" stop-color="#FFBD00"/>
<stop offset="0.775" stop-color="#FFA500"/>
<stop offset="1" stop-color="#FF9C00"/>
</linearGradient>
<linearGradient id="paint2_linear" x1="15.8565" y1="19.1419" x2="-5.36694" y2="40.3653" gradientUnits="userSpaceOnUse">
<stop stop-color="#FF3A44"/>
<stop offset="1" stop-color="#C31162"/>
</linearGradient>
<linearGradient id="paint3_linear" x1="-0.4909" y1="-1.49318" x2="8.98629" y2="7.98401" gradientUnits="userSpaceOnUse">
<stop stop-color="#32A071"/>
<stop offset="0.069" stop-color="#2DA771"/>
<stop offset="0.476" stop-color="#15CF74"/>
<stop offset="0.801" stop-color="#06E775"/>
<stop offset="1" stop-color="#00F076"/>
</linearGradient>
</defs>
</svg>
