<svg width="68" height="68" viewBox="0 0 68 68" fill="none" xmlns="http://www.w3.org/2000/svg">
<path fill-rule="evenodd" clip-rule="evenodd" d="M0.666016 33.9998C0.666016 15.5998 15.5993 0.666504 33.9994 0.666504C52.3994 0.666504 67.3327 15.5998 67.3327 33.9998C67.3327 52.3998 52.3994 67.3332 33.9994 67.3332C15.5993 67.3332 0.666016 52.3998 0.666016 33.9998ZM27.3332 41.2332L49.2998 19.2666L53.9998 23.9999L27.3332 50.6666L13.9998 37.3332L18.6998 32.6332L27.3332 41.2332Z" fill="#5465E7"/>
</svg>
