<svg width="10" height="20" viewBox="0 0 10 20" fill="none" xmlns="http://www.w3.org/2000/svg">
<path d="M9.62392 0.00416134L7.22537 0C4.53069 0 2.78927 1.9319 2.78927 4.92203V7.19141H0.377636C0.169243 7.19141 0.000488281 7.37409 0.000488281 7.59943V10.8875C0.000488281 11.1128 0.169435 11.2953 0.377636 11.2953H2.78927V19.5922C2.78927 19.8175 2.95802 20 3.16641 20H6.31291C6.5213 20 6.69005 19.8173 6.69005 19.5922V11.2953H9.50981C9.71821 11.2953 9.88696 11.1128 9.88696 10.8875L9.88811 7.59943C9.88811 7.49123 9.84828 7.38762 9.77766 7.31105C9.70704 7.23448 9.61083 7.19141 9.51077 7.19141H6.69005V5.26763C6.69005 4.34298 6.89383 3.87358 8.00776 3.87358L9.62353 3.87295C9.83173 3.87295 10.0005 3.69027 10.0005 3.46514V0.411972C10.0005 0.187052 9.83193 0.00457747 9.62392 0.00416134Z" fill="#858BA1"/>
</svg>
